ILO summary
…
the ILOs I did not know how to classify are:

ilo_data %>% filter(is.na(`Course_Intention/Student_profile`)) %>% select(Course, ILO)

## # A tibble: 29 x 2
##    Course  ILO                                                      
##    <chr>   <chr>                                                    
##  1 SCI2009 1. Human Cells and functions                             
##  2 SCI2009 2. Functional organization of the body                   
##  3 SCI2009 3. Membrane Physiology                                   
##  4 SCI2009 4. Cardiac function and blood pressure control           
##  5 SCI2009 5. Red blood cell function and gas transport and exchange
##  6 SCI2009 6. Pulmonary ventilation and regulation                  
##  7 SCI2009 7. Kidney function, intra-and extracellular compartments 
##  8 SCI2009 8. Neuronal control                                      
##  9 SCI2009 9. Hormonal control                                      
## 10 SCI2009 10. Gastrointestinal Physiology                          
## # ... with 19 more rows
…
